{
    "$schema": "https://go.kicad.org/pcm/schemas/v1",
    "name": "Gruvbox Light",
    "description": "A KiCAD adoptation of the Gruvbox Light theme",
    "description_full": "Gruvbox is a popular theme. Gruvbox all the things!",
    "identifier": "com.github.hza2002.kicad-gruvbox-light-theme",
    "type": "colortheme",
    "author": {
        "name": "Bill Hu",
        "contact": {
            "web": "https://nand.fun",
            "mail": "hza2002@foxmail.com"
        }
    },
    "license": "MIT",
    "resources": {
        "homepage": "https://github.com/hza2002/kicad-gruvbox-light-theme"
    },
    "versions": [
        {
            "version": "1.0",
            "status": "stable",
            "kicad_version": "6",
            "download_sha256": "20232f1f53f13aa180d37ad1c2f5050e11cfb9d7f90442dd7c361424720446f7",
            "download_size": 5210,
            "download_url": "https://github.com/hza2002/kicad-gruvbox-light-theme/releases/download/v1.0/Gruvbox_Light_v1.0.zip",
            "install_size": 10849
        }
    ]
}
